{

"OSCFrontendReceive" : "3003",
"OSCFrontendSend" : "3004",
"OSCSerialSend" : "3005",

"bx_cleansweepSettings" : "/Users/audiobox/Documents/Audiobox1.2/Backend/Settings-bx_cleansweep.fxp",
"bx_cleansweepVST" : "/Library/Audio/Plug-Ins/VST/Plugin Alliance/bx_cleansweep V2.vst",

"DC1A2Settings" : "/Users/audiobox/Documents/Audiobox1.2/Backend/Settings-dc1a2.fxp",
"DC1A2VST" : "/Library/Audio/Plug-Ins/VST/DC1A2.vst",

"MAutoVolumeSettings" : "/Users/audiobox/Documents/Audiobox1.2/Backend/Settings-mautovolume.fxp",
"MAutoVolumeVST" : "/Library/Audio/Plug-Ins/VST/MeldaProduction/Dynamics/MAutoVolume.vst",

"MSpectralDynamicsSettings" : "/Users/audiobox/Documents/Audiobox1.2/Backend/Settings-mspectraldynamics.fxp",
"MSpectralDynamicsVST" : "/Library/Audio/Plug-Ins/VST/MeldaProduction/Dynamics/MSpectralDynamics.vst",

"SAFESettings" : "/Users/audiobox/Documents/Audiobox1.2/Backend/Settings-safe.fxp",
"SAFEVST" : "/Library/Audio/Plug-Ins/VST/SAFEReverb.vst",

"Limiter6VST" : "/Library/Audio/Plug-Ins/VST/Limiter6.vst",
"Limiter6Settings" : "/Users/audiobox/Documents/Audiobox1.2/Backend/Settings-limiter6.fxp",

"MJUCjrVST" : "/Library/Audio/Plug-Ins/VST/MJUCjr.vst",
"MJUCjrSettings" : "/Users/audiobox/Documents/Audiobox1.2/Backend/Settings-mjucjr.fxp",

"TDR_KotelnikovVST" : "/Library/Audio/Plug-Ins/VST/TDR_Kotelnikov.vst",
"TDR_KotelnikovSettings" : "/Users/audiobox/Documents/Audiobox1.2/Backend/Settings-kotelnikov.fxp",

"TDR_NovaVST" : "/Library/Audio/Plug-Ins/VST/TDR_Nova.vst",
"TDR_NovaSettings" : "/Users/audiobox/Documents/Audiobox1.2/Backend/Settings-nova.fxp",

"OldSkoolVerbVST" : "/Library/Audio/Plug-Ins/VST/OldSkoolVerb.vst",
"OldSkoolVerbSettings" : "/Users/audiobox/Documents/Audiobox1.2/Backend/Settings-oldskoolverb.fxp"
}