<?xml version="1.0" encoding="UTF-8" standalone="no"?>
<svg width="168px" height="138px" viewBox="0 0 168 138" version="1.1" xmlns="http://www.w3.org/2000/svg" xmlns:xlink="http://www.w3.org/1999/xlink" xmlns:sketch="http://www.bohemiancoding.com/sketch/ns">
    <!-- Generator: Sketch 3.4.4 (17249) - http://www.bohemiancoding.com/sketch -->
    <title>Rectangle 1801 Copy 32 + shift</title>
    <desc>Created with Sketch.</desc>
    <defs></defs>
    <g id="Page-1" stroke="none" stroke-width="1" fill="none" fill-rule="evenodd" sketch:type="MSPage">
        <g id="2-whatsYourNameView" sketch:type="MSArtboardGroup" transform="translate(0.000000, -798.000000)">
            <g id="keyboard" sketch:type="MSLayerGroup" transform="translate(0.000000, 499.132570)">
                <g id="button" transform="translate(0.000000, 10.000000)" sketch:type="MSShapeGroup">
                    <g id="Rectangle-1801-Copy-32-+-shift" transform="translate(0.000000, 289.000000)">
                        <rect id="Rectangle-1801-Copy-32" fill="#262626" x="0" y="0.240797526" width="167.619801" height="137.008799" rx="2"></rect>
                        <path d="M74.6670021,82.8490439 L92.9527985,82.8490439 L92.9527985,64.0439146 L105.14333,64.0439146 L83.8099003,42.1045972 L62.4764712,64.0439146 L74.6670021,64.0439146 L74.6670021,82.8490439 Z M62.4764712,89.1174203 L62.4764712,95.3857967 L105.14333,95.3857967 L105.14333,89.1174203 L62.4764712,89.1174203 Z" id="shift" fill="#AAC9D7"></path>
                    </g>
                </g>
            </g>
        </g>
    </g>
</svg>